# 
# Wavefront OBJ file
# Converted by the DEEP Exploration Deep Exploration 6.5 x64 6.5.0.9182
# Right Hemisphere, LTD
# http://www.righthemisphere.com/
# 
mtllib nut_lod1.mtl
# object nut
g nut
v 0.12937 0.25000 0.31685
v 0.24450 0.25000 0.25813
v 0.12922 -0.25000 0.31692
v 0.30202 -0.25000 0.21014
v 0.33622 0.25000 0.16641
v 0.39516 -0.25000 0.05068
v 0.39518 0.25000 0.05058
v 0.41540 0.25000 -0.07728
v 0.41002 -0.25000 -0.15329
v 0.39511 0.25000 -0.20539
v 0.33622 0.25000 -0.32096
v 0.33622 -0.25000 -0.32096
v 0.24246 0.25000 -0.41401
v 0.24356 -0.25000 -0.41344
v 0.12892 0.25000 -0.47157
v 0.12892 -0.25000 -0.47157
v -0.06396 0.25000 -0.48955
v 0.00081 -0.25000 -0.49186
v -0.12731 -0.25000 -0.47157
v -0.24160 -0.25000 -0.41361
v -0.24180 0.25000 -0.41347
v -0.33460 0.25000 -0.32096
v -0.33460 -0.25000 -0.32096
v -0.41247 0.25000 -0.13905
v -0.40760 -0.25000 -0.16458
v -0.39353 0.25000 0.05073
v -0.39359 -0.25000 0.05045
v -0.29163 0.25000 0.22135
v -0.30939 -0.25000 0.20251
v -0.12787 -0.25000 0.31680
v -0.12749 0.25000 0.31697
v 0.00081 -0.25000 0.33731
v 0.00081 0.25000 0.33731
v 1.00000 0.25000 0.00000
v 0.50000 0.25000 -0.86602
v 0.50000 0.25000 0.86602
v -0.50000 0.25000 0.86602
v -1.00000 0.25000 0.00000
v -0.50000 0.25000 -0.86603
v 1.00000 -0.25000 0.00000
v 0.50000 -0.25000 -0.86602
v 0.50000 -0.25000 0.86602
v -0.50000 -0.25000 0.86602
v -1.00000 -0.25000 0.00000
v -0.50000 -0.25000 -0.86603
# 45 verticies
vt 0.34376 0.55133
vt 0.34376 0.53275
vt 0.46970 0.55133
vt 0.46970 0.53275
vt 0.46970 0.50965
vt 0.34376 0.50965
vt 0.07960 0.50965
vt 0.20554 0.50965
vt 0.07960 0.53876
vt 0.20554 0.53876
vt 0.20554 0.55157
vt 0.20554 0.57103
vt 0.07960 0.55157
vt 0.07960 0.57103
vt 0.20554 0.60330
vt 0.07960 0.60330
vt 0.20554 0.63241
vt 0.07960 0.63241
vt 0.20554 0.65551
vt 0.07960 0.65551
vt 0.33762 0.53876
vt 0.21168 0.53876
vt 0.33762 0.51086
vt 0.21168 0.51086
vt 0.33762 0.57103
vt 0.21168 0.57103
vt 0.21168 0.60330
vt 0.21168 0.63151
vt 0.33762 0.63151
vt 0.33762 0.60330
vt 0.33762 0.65551
vt 0.21168 0.65551
vt 0.33762 0.63241
vt 0.21168 0.63241
vt 0.09564 0.78545
vt 0.09564 0.65951
vt 0.12476 0.78545
vt 0.12476 0.65951
vt 0.04391 0.78545
vt 0.04391 0.65951
vt 0.06337 0.78545
vt 0.06337 0.65951
vt 0.00199 0.78545
vt 0.00199 0.65951
vt 0.03110 0.78545
vt 0.03110 0.65951
vt 0.46970 0.65551
vt 0.34376 0.65551
vt 0.46970 0.63725
vt 0.34376 0.63725
vt 0.46970 0.62640
vt 0.34376 0.62640
vt 0.46970 0.59413
vt 0.34376 0.59413
vt 0.46970 0.56186
vt 0.34376 0.56186
vt 0.22013 0.15222
vt 0.22013 0.00189
vt 0.23959 0.14914
vt 0.43827 0.12783
vt 0.32408 0.19219
vt 0.30098 0.16908
vt 0.27187 0.15425
vt 0.00199 0.12783
vt 0.20732 0.15425
vt 0.17821 0.16908
vt 0.15511 0.19219
vt 0.14564 0.21077
vt 0.14028 0.22130
vt 0.13517 0.25357
vt 0.14028 0.28584
vt 0.00199 0.37971
vt 0.22013 0.50566
vt 0.22013 0.35491
vt 0.20732 0.35289
vt 0.17821 0.33805
vt 0.15511 0.31495
vt 0.14580 0.29669
vt 0.23959 0.35800
vt 0.43827 0.37971
vt 0.32408 0.31495
vt 0.30098 0.33805
vt 0.27187 0.35289
vt 0.32470 0.19340
vt 0.33891 0.22130
vt 0.34402 0.25357
vt 0.32454 0.31405
vt 0.33891 0.28584
vt 0.66274 0.15222
vt 0.64327 0.14914
vt 0.66274 0.00189
vt 0.44460 0.12783
vt 0.55879 0.19219
vt 0.58189 0.16908
vt 0.61100 0.15425
vt 0.88088 0.12783
vt 0.67554 0.15425
vt 0.70465 0.16908
vt 0.73722 0.21077
vt 0.72776 0.19219
vt 0.74259 0.28584
vt 0.74770 0.25357
vt 0.88088 0.37971
vt 0.74259 0.22130
vt 0.66274 0.50566
vt 0.66274 0.35491
vt 0.67554 0.35289
vt 0.70465 0.33805
vt 0.72776 0.31495
vt 0.73706 0.29669
vt 0.64327 0.35800
vt 0.44460 0.37971
vt 0.55879 0.31495
vt 0.58189 0.33805
vt 0.61100 0.35289
vt 0.55833 0.31405
vt 0.54396 0.28584
vt 0.53885 0.25357
vt 0.54396 0.22130
vt 0.55817 0.19340
vt 0.87207 0.72779
vt 0.87207 0.50965
vt 0.99801 0.72779
vt 0.99801 0.50965
vt 0.87207 0.94592
vt 0.99801 0.94592
vt 0.60791 0.76153
vt 0.60791 0.50965
vt 0.73385 0.76153
vt 0.73385 0.50965
vt 0.73999 0.72779
vt 0.73999 0.50965
vt 0.86593 0.72779
vt 0.86593 0.50965
vt 0.73999 0.94592
vt 0.86593 0.94592
vt 0.60177 0.50965
vt 0.60177 0.76153
vt 0.47583 0.50965
vt 0.47583 0.76153
# 140 texture verticies
vn -0.26777 0.00000 -0.96348
vn -0.61570 0.00000 -0.78798
vn -0.27419 0.00000 -0.96168
vn -0.73685 0.00000 -0.67606
vn -0.80902 0.00000 -0.58779
vn -0.93787 0.00000 -0.34698
vn -0.93595 0.00000 -0.35213
vn -0.99923 0.00000 0.03917
vn -0.97994 0.00000 0.19928
vn -0.95106 0.00000 0.30902
vn -0.80902 0.00000 0.58779
vn -0.54669 0.00000 0.83734
vn -0.62688 0.00000 0.77911
vn -0.30581 0.00000 0.95209
vn 0.16686 0.00000 0.98598
vn 0.00000 0.00000 1.00000
vn 0.30665 0.00000 0.95182
vn 0.58750 0.00000 0.80922
vn 0.58755 0.00000 0.80918
vn 0.80902 0.00000 0.58779
vn 0.98539 0.00000 0.17030
vn 0.97526 0.00000 0.22106
vn 0.93374 0.00000 -0.35796
vn 0.94090 0.00000 -0.33869
vn 0.71791 0.00000 -0.69613
vn 0.75458 0.00000 -0.65621
vn 0.28368 0.00000 -0.95892
vn 0.25924 0.00000 -0.96581
vn 0.00000 0.00000 -1.00000
vn 0.00000 1.00000 0.00000
vn 0.00000 -1.00000 0.00000
vn 0.86603 0.00000 -0.50000
vn 0.86603 0.00000 0.50000
vn -0.86603 0.00000 0.50000
vn -0.86603 0.00000 -0.50000
# 35 normals
usemtl initialShadingGroup
f  1/1/1 2/2/2 3/3/3
f  2/2/2 4/4/4 3/3/3
f  4/5/4 2/2/2 5/6/5
f  4/7/4 5/8/5 6/9/6
f  6/9/6 5/8/5 7/10/7
f  7/11/7 8/12/8 6/13/6
f  8/12/8 9/14/9 6/13/6
f  10/15/10 9/16/9 8/12/8
f  11/17/11 12/18/11 10/15/10
f  10/15/10 12/18/11 9/16/9
f  13/19/12 14/20/13 11/17/11
f  11/17/11 14/20/13 12/18/11
f  15/21/14 16/22/14 13/23/12
f  16/22/14 14/24/13 13/23/12
f  17/25/15 18/26/16 15/21/14
f  15/21/14 18/26/16 16/22/14
f  17/25/15 19/27/17 18/26/16
f  20/28/18 19/27/17 21/29/19
f  19/27/17 17/30/15 21/29/19
f  22/31/20 23/32/20 21/33/19
f  21/33/19 23/32/20 20/34/18
f  24/35/21 25/36/22 22/37/20
f  22/37/20 25/36/22 23/38/20
f  26/39/23 27/40/24 24/41/21
f  27/40/24 25/42/22 24/41/21
f  28/43/25 29/44/26 26/45/23
f  26/45/23 29/44/26 27/46/24
f  29/47/26 28/48/25 30/49/27
f  28/48/25 31/50/28 30/49/27
f  30/51/27 31/52/28 32/53/29
f  32/53/29 31/52/28 33/54/29
f  32/53/29 33/54/29 3/55/3
f  3/55/3 33/54/29 1/56/1
f  7/57/30 34/58/30 8/59/30
f  35/60/30 13/61/30 34/58/30
f  13/61/30 11/62/30 34/58/30
f  11/62/30 10/63/30 34/58/30
f  10/63/30 8/59/30 34/58/30
f  34/58/30 7/57/30 36/64/30
f  7/65/30 5/66/30 36/64/30
f  5/66/30 2/67/30 36/64/30
f  2/67/30 1/68/30 36/64/30
f  1/69/30 33/70/30 36/64/30
f  31/71/30 37/72/30 33/70/30
f  33/70/30 37/72/30 36/64/30
f  38/73/30 37/72/30 26/74/30
f  26/75/30 37/72/30 28/76/30
f  28/77/30 37/72/30 31/78/30
f  26/74/30 24/79/30 38/73/30
f  39/80/30 38/73/30 21/81/30
f  21/81/30 38/73/30 22/82/30
f  22/82/30 38/73/30 24/83/30
f  35/60/30 39/80/30 13/84/30
f  13/84/30 39/80/30 15/85/30
f  15/85/30 39/80/30 17/86/30
f  21/87/30 17/88/30 39/80/30
f  6/89/31 9/90/31 40/91/31
f  41/92/31 40/91/31 14/93/31
f  14/93/31 40/91/31 12/94/31
f  12/94/31 40/91/31 9/95/31
f  40/91/31 42/96/31 6/89/31
f  6/97/31 42/96/31 4/98/31
f  3/99/31 4/100/31 42/96/31
f  30/101/31 32/102/31 43/103/31
f  3/104/31 42/96/31 32/102/31
f  32/102/31 42/96/31 43/103/31
f  44/105/31 27/106/31 43/103/31
f  27/107/31 29/108/31 43/103/31
f  29/109/31 30/110/31 43/103/31
f  27/106/31 44/105/31 25/111/31
f  45/112/31 20/113/31 44/105/31
f  20/113/31 23/114/31 44/105/31
f  23/114/31 25/115/31 44/105/31
f  45/112/31 41/92/31 20/116/31
f  20/116/31 41/92/31 19/117/31
f  19/117/31 41/92/31 18/118/31
f  18/118/31 41/92/31 16/119/31
f  41/92/31 14/120/31 16/119/31
f  40/121/32 41/122/32 34/123/32
f  34/123/32 41/122/32 35/124/32
f  42/125/33 40/121/33 36/126/33
f  36/126/33 40/121/33 34/123/33
f  43/127/16 42/128/16 37/129/16
f  37/129/16 42/128/16 36/130/16
f  44/131/34 43/132/34 38/133/34
f  38/133/34 43/132/34 37/134/34
f  45/135/35 44/131/35 39/136/35
f  39/136/35 44/131/35 38/133/35
f  41/137/29 45/138/29 35/139/29
f  35/139/29 45/138/29 39/140/29
